simulation/modelsim/msim_transcript
# Reading pref.tcl
# ERROR: No extended dataflow license exists
# do AES_run_msim_rtl_verilog.do
# if {[file exists rtl_work]} {
# 	vdel -lib rtl_work -all
# }
# vlib rtl_work
# vmap work rtl_work
# Model Technology ModelSim - Intel FPGA Edition vmap 2020.1 Lib Mapping Utility 2020.02 Feb 28 2020
# vmap work rtl_work 
# Copying F:/Quartus/modelsim_ase/win32aloem/../modelsim.ini to modelsim.ini
# Modifying modelsim.ini
# 
# vlog -vlog01compat -work work +incdir+D:/CMP2025/First\ Year/Second\ Term/Logic\ Design\ Advanced/Project/Logic\ Project\ New\ Edition/Logic\ Project {D:/CMP2025/First Year/Second Term/Logic Design Advanced/Project/Logic Project New Edition/Logic Project/ShiftRows.v}
# Model Technology ModelSim - Intel FPGA Edition vlog 2020.1 Compiler 2020.02 Feb 28 2020
# Start time: 00:27:25 on Aug 29,2022
# vlog -reportprogress 300 -vlog01compat -work work "+incdir+D:/CMP2025/First Year/Second Term/Logic Design Advanced/Project/Logic Project New Edition/Logic Project" D:/CMP2025/First Year/Second Term/Logic Design Advanced/Project/Logic Project New Edition/Logic Project/ShiftRows.v 
# -- Compiling module ShiftRows
# 
# Top level modules:
# 	ShiftRows
# End time: 00:27:26 on Aug 29,2022, Elapsed time: 0:00:01
# Errors: 0, Warnings: 0
# vlog -vlog01compat -work work +incdir+D:/CMP2025/First\ Year/Second\ Term/Logic\ Design\ Advanced/Project/Logic\ Project\ New\ Edition/Logic\ Project {D:/CMP2025/First Year/Second Term/Logic Design Advanced/Project/Logic Project New Edition/Logic Project/MixColumns.v}
# Model Technology ModelSim - Intel FPGA Edition vlog 2020.1 Compiler 2020.02 Feb 28 2020
# Start time: 00:27:26 on Aug 29,2022
# vlog -reportprogress 300 -vlog01compat -work work "+incdir+D:/CMP2025/First Year/Second Term/Logic Design Advanced/Project/Logic Project New Edition/Logic Project" D:/CMP2025/First Year/Second Term/Logic Design Advanced/Project/Logic Project New Edition/Logic Project/MixColumns.v 
# -- Compiling module MixColumns
# -- Compiling module multiplytwo
# -- Compiling module multiplythree
# 
# Top level modules:
# 	MixColumns
# End time: 00:27:26 on Aug 29,2022, Elapsed time: 0:00:00
# Errors: 0, Warnings: 0
# vlog -vlog01compat -work work +incdir+D:/CMP2025/First\ Year/Second\ Term/Logic\ Design\ Advanced/Project/Logic\ Project\ New\ Edition/Logic\ Project {D:/CMP2025/First Year/Second Term/Logic Design Advanced/Project/Logic Project New Edition/Logic Project/InvMixColumns.v}
# Model Technology ModelSim - Intel FPGA Edition vlog 2020.1 Compiler 2020.02 Feb 28 2020
# Start time: 00:27:26 on Aug 29,2022
# vlog -reportprogress 300 -vlog01compat -work work "+incdir+D:/CMP2025/First Year/Second Term/Logic Design Advanced/Project/Logic Project New Edition/Logic Project" D:/CMP2025/First Year/Second Term/Logic Design Advanced/Project/Logic Project New Edition/Logic Project/InvMixColumns.v 
# -- Compiling module InvMixColumns
# -- Compiling module multiplynine
# -- Compiling module multiplyeleven
# -- Compiling module multiplythirteen
# -- Compiling module multiplyfourteen
# 
# Top level modules:
# 	InvMixColumns
# End time: 00:27:26 on Aug 29,2022, Elapsed time: 0:00:00
# Errors: 0, Warnings: 0
# vlog -vlog01compat -work work +incdir+D:/CMP2025/First\ Year/Second\ Term/Logic\ Design\ Advanced/Project/Logic\ Project\ New\ Edition/Logic\ Project {D:/CMP2025/First Year/Second Term/Logic Design Advanced/Project/Logic Project New Edition/Logic Project/InverseShiftRows.v}
# Model Technology ModelSim - Intel FPGA Edition vlog 2020.1 Compiler 2020.02 Feb 28 2020
# Start time: 00:27:26 on Aug 29,2022
# vlog -reportprogress 300 -vlog01compat -work work "+incdir+D:/CMP2025/First Year/Second Term/Logic Design Advanced/Project/Logic Project New Edition/Logic Project" D:/CMP2025/First Year/Second Term/Logic Design Advanced/Project/Logic Project New Edition/Logic Project/InverseShiftRows.v 
# -- Compiling module InverseShiftRows
# 
# Top level modules:
# 	InverseShiftRows
# End time: 00:27:26 on Aug 29,2022, Elapsed time: 0:00:00
# Errors: 0, Warnings: 0
# vlog -vlog01compat -work work +incdir+D:/CMP2025/First\ Year/Second\ Term/Logic\ Design\ Advanced/Project/Logic\ Project\ New\ Edition/Logic\ Project {D:/CMP2025/First Year/Second Term/Logic Design Advanced/Project/Logic Project New Edition/Logic Project/subBytes.v}
# Model Technology ModelSim - Intel FPGA Edition vlog 2020.1 Compiler 2020.02 Feb 28 2020
# Start time: 00:27:26 on Aug 29,2022
# vlog -reportprogress 300 -vlog01compat -work work "+incdir+D:/CMP2025/First Year/Second Term/Logic Design Advanced/Project/Logic Project New Edition/Logic Project" D:/CMP2025/First Year/Second Term/Logic Design Advanced/Project/Logic Project New Edition/Logic Project/subBytes.v 
# -- Compiling module subBytes_state
# -- Compiling module subBytes
# -- Compiling module s_box
# 
# Top level modules:
# 	subBytes_state
# 	subBytes
# End time: 00:27:26 on Aug 29,2022, Elapsed time: 0:00:00
# Errors: 0, Warnings: 0
# vlog -vlog01compat -work work +incdir+D:/CMP2025/First\ Year/Second\ Term/Logic\ Design\ Advanced/Project/Logic\ Project\ New\ Edition/Logic\ Project {D:/CMP2025/First Year/Second Term/Logic Design Advanced/Project/Logic Project New Edition/Logic Project/subBytes_inv.v}
# Model Technology ModelSim - Intel FPGA Edition vlog 2020.1 Compiler 2020.02 Feb 28 2020
# Start time: 00:27:26 on Aug 29,2022
# vlog -reportprogress 300 -vlog01compat -work work "+incdir+D:/CMP2025/First Year/Second Term/Logic Design Advanced/Project/Logic Project New Edition/Logic Project" D:/CMP2025/First Year/Second Term/Logic Design Advanced/Project/Logic Project New Edition/Logic Project/subBytes_inv.v 
# -- Compiling module subBytes_inv
# -- Compiling module s_box_inv
# 
# Top level modules:
# 	subBytes_inv
# End time: 00:27:26 on Aug 29,2022, Elapsed time: 0:00:00
# Errors: 0, Warnings: 0
# vlog -vlog01compat -work work +incdir+D:/CMP2025/First\ Year/Second\ Term/Logic\ Design\ Advanced/Project/Logic\ Project\ New\ Edition/Logic\ Project {D:/CMP2025/First Year/Second Term/Logic Design Advanced/Project/Logic Project New Edition/Logic Project/KeyExpansion.v}
# Model Technology ModelSim - Intel FPGA Edition vlog 2020.1 Compiler 2020.02 Feb 28 2020
# Start time: 00:27:27 on Aug 29,2022
# vlog -reportprogress 300 -vlog01compat -work work "+incdir+D:/CMP2025/First Year/Second Term/Logic Design Advanced/Project/Logic Project New Edition/Logic Project" D:/CMP2025/First Year/Second Term/Logic Design Advanced/Project/Logic Project New Edition/Logic Project/KeyExpansion.v 
# -- Compiling module KeyExpansion
# 
# Top level modules:
# 	KeyExpansion
# End time: 00:27:27 on Aug 29,2022, Elapsed time: 0:00:00
# Errors: 0, Warnings: 0
# vlog -vlog01compat -work work +incdir+D:/CMP2025/First\ Year/Second\ Term/Logic\ Design\ Advanced/Project/Logic\ Project\ New\ Edition/Logic\ Project {D:/CMP2025/First Year/Second Term/Logic Design Advanced/Project/Logic Project New Edition/Logic Project/RotWord.v}
# Model Technology ModelSim - Intel FPGA Edition vlog 2020.1 Compiler 2020.02 Feb 28 2020
# Start time: 00:27:27 on Aug 29,2022
# vlog -reportprogress 300 -vlog01compat -work work "+incdir+D:/CMP2025/First Year/Second Term/Logic Design Advanced/Project/Logic Project New Edition/Logic Project" D:/CMP2025/First Year/Second Term/Logic Design Advanced/Project/Logic Project New Edition/Logic Project/RotWord.v 
# -- Compiling module RotWord
# -- Compiling module rcon
# 
# Top level modules:
# 	RotWord
# 	rcon
# End time: 00:27:27 on Aug 29,2022, Elapsed time: 0:00:00
# Errors: 0, Warnings: 0
# vlog -vlog01compat -work work +incdir+D:/CMP2025/First\ Year/Second\ Term/Logic\ Design\ Advanced/Project/Logic\ Project\ New\ Edition/Logic\ Project {D:/CMP2025/First Year/Second Term/Logic Design Advanced/Project/Logic Project New Edition/Logic Project/AddRoundKey.v}
# Model Technology ModelSim - Intel FPGA Edition vlog 2020.1 Compiler 2020.02 Feb 28 2020
# Start time: 00:27:27 on Aug 29,2022
# vlog -reportprogress 300 -vlog01compat -work work "+incdir+D:/CMP2025/First Year/Second Term/Logic Design Advanced/Project/Logic Project New Edition/Logic Project" D:/CMP2025/First Year/Second Term/Logic Design Advanced/Project/Logic Project New Edition/Logic Project/AddRoundKey.v 
# -- Compiling module AddRoundKey
# 
# Top level modules:
# 	AddRoundKey
# End time: 00:27:27 on Aug 29,2022, Elapsed time: 0:00:00
# Errors: 0, Warnings: 0
# vlog -vlog01compat -work work +incdir+D:/CMP2025/First\ Year/Second\ Term/Logic\ Design\ Advanced/Project/Logic\ Project\ New\ Edition/Logic\ Project {D:/CMP2025/First Year/Second Term/Logic Design Advanced/Project/Logic Project New Edition/Logic Project/cipher.v}
# Model Technology ModelSim - Intel FPGA Edition vlog 2020.1 Compiler 2020.02 Feb 28 2020
# Start time: 00:27:27 on Aug 29,2022
# vlog -reportprogress 300 -vlog01compat -work work "+incdir+D:/CMP2025/First Year/Second Term/Logic Design Advanced/Project/Logic Project New Edition/Logic Project" D:/CMP2025/First Year/Second Term/Logic Design Advanced/Project/Logic Project New Edition/Logic Project/cipher.v 
# -- Compiling module cipher
# 
# Top level modules:
# 	cipher
# End time: 00:27:28 on Aug 29,2022, Elapsed time: 0:00:01
# Errors: 0, Warnings: 0
# vlog -vlog01compat -work work +incdir+D:/CMP2025/First\ Year/Second\ Term/Logic\ Design\ Advanced/Project/Logic\ Project\ New\ Edition/Logic\ Project {D:/CMP2025/First Year/Second Term/Logic Design Advanced/Project/Logic Project New Edition/Logic Project/BlockTostate.v}
# Model Technology ModelSim - Intel FPGA Edition vlog 2020.1 Compiler 2020.02 Feb 28 2020
# Start time: 00:27:28 on Aug 29,2022
# vlog -reportprogress 300 -vlog01compat -work work "+incdir+D:/CMP2025/First Year/Second Term/Logic Design Advanced/Project/Logic Project New Edition/Logic Project" D:/CMP2025/First Year/Second Term/Logic Design Advanced/Project/Logic Project New Edition/Logic Project/BlockTostate.v 
# -- Compiling module BlockTostate
# 
# Top level modules:
# 	BlockTostate
# End time: 00:27:28 on Aug 29,2022, Elapsed time: 0:00:00
# Errors: 0, Warnings: 0
# vlog -vlog01compat -work work +incdir+D:/CMP2025/First\ Year/Second\ Term/Logic\ Design\ Advanced/Project/Logic\ Project\ New\ Edition/Logic\ Project {D:/CMP2025/First Year/Second Term/Logic Design Advanced/Project/Logic Project New Edition/Logic Project/Inv_cipher.v}
# Model Technology ModelSim - Intel FPGA Edition vlog 2020.1 Compiler 2020.02 Feb 28 2020
# Start time: 00:27:28 on Aug 29,2022
# vlog -reportprogress 300 -vlog01compat -work work "+incdir+D:/CMP2025/First Year/Second Term/Logic Design Advanced/Project/Logic Project New Edition/Logic Project" D:/CMP2025/First Year/Second Term/Logic Design Advanced/Project/Logic Project New Edition/Logic Project/Inv_cipher.v 
# -- Compiling module Inv_cipher
# 
# Top level modules:
# 	Inv_cipher
# End time: 00:27:28 on Aug 29,2022, Elapsed time: 0:00:00
# Errors: 0, Warnings: 0
# vlog -vlog01compat -work work +incdir+D:/CMP2025/First\ Year/Second\ Term/Logic\ Design\ Advanced/Project/Logic\ Project\ New\ Edition/Logic\ Project {D:/CMP2025/First Year/Second Term/Logic Design Advanced/Project/Logic Project New Edition/Logic Project/Wrapper.v}
# Model Technology ModelSim - Intel FPGA Edition vlog 2020.1 Compiler 2020.02 Feb 28 2020
# Start time: 00:27:28 on Aug 29,2022
# vlog -reportprogress 300 -vlog01compat -work work "+incdir+D:/CMP2025/First Year/Second Term/Logic Design Advanced/Project/Logic Project New Edition/Logic Project" D:/CMP2025/First Year/Second Term/Logic Design Advanced/Project/Logic Project New Edition/Logic Project/Wrapper.v 
# -- Compiling module Wrapper
# 
# Top level modules:
# 	Wrapper
# End time: 00:27:28 on Aug 29,2022, Elapsed time: 0:00:00
# Errors: 0, Warnings: 0
# 
# vlog -vlog01compat -work work +incdir+D:/CMP2025/First\ Year/Second\ Term/Logic\ Design\ Advanced/Project/Logic\ Project\ New\ Edition/Logic\ Project {D:/CMP2025/First Year/Second Term/Logic Design Advanced/Project/Logic Project New Edition/Logic Project/Test_bench.v}
# Model Technology ModelSim - Intel FPGA Edition vlog 2020.1 Compiler 2020.02 Feb 28 2020
# Start time: 00:27:28 on Aug 29,2022
# vlog -reportprogress 300 -vlog01compat -work work "+incdir+D:/CMP2025/First Year/Second Term/Logic Design Advanced/Project/Logic Project New Edition/Logic Project" D:/CMP2025/First Year/Second Term/Logic Design Advanced/Project/Logic Project New Edition/Logic Project/Test_bench.v 
# -- Compiling module Test_bench
# -- Compiling module Test_bench_cipher
# -- Compiling module Test_bench_key
# 
# Top level modules:
# 	Test_bench
# 	Test_bench_cipher
# 	Test_bench_key
# End time: 00:27:28 on Aug 29,2022, Elapsed time: 0:00:00
# Errors: 0, Warnings: 0
# 
# vsim -t 1ps -L altera_ver -L lpm_ver -L sgate_ver -L altera_mf_ver -L altera_lnsim_ver -L cyclonev_ver -L cyclonev_hssi_ver -L cyclonev_pcie_hip_ver -L rtl_work -L work -voptargs="+acc"  Test_bench
# vsim -t 1ps -L altera_ver -L lpm_ver -L sgate_ver -L altera_mf_ver -L altera_lnsim_ver -L cyclonev_ver -L cyclonev_hssi_ver -L cyclonev_pcie_hip_ver -L rtl_work -L work -voptargs=""+acc"" Test_bench 
# Start time: 00:27:29 on Aug 29,2022
# Loading work.Test_bench
# Loading work.Wrapper
# Loading work.cipher
# Loading work.KeyExpansion
# Loading work.RotWord
# Loading work.subBytes
# Loading work.rcon
# Loading work.subBytes_state
# Loading work.ShiftRows
# Loading work.BlockTostate
# Loading work.MixColumns
# Loading work.multiplytwo
# Loading work.multiplythree
# Loading work.AddRoundKey
# Loading work.Inv_cipher
# Loading work.InverseShiftRows
# Loading work.subBytes_inv
# Loading work.InvMixColumns
# Loading work.multiplyfourteen
# Loading work.multiplyeleven
# Loading work.multiplythirteen
# Loading work.multiplynine
# Loading work.s_box
# Loading work.s_box_inv
# ** Warning: (vsim-3015) [PCDPC] - Port size (129) does not match connection size (128) for port 'key'. The port definition is at: D:/CMP2025/First Year/Second Term/Logic Design Advanced/Project/Logic Project New Edition/Logic Project/KeyExpansion.v(1).
#    Time: 0 ps  Iteration: 0  Instance: /Test_bench/test/encrypt/keys File: D:/CMP2025/First Year/Second Term/Logic Design Advanced/Project/Logic Project New Edition/Logic Project/cipher.v Line: 7
# ** Warning: (vsim-3015) [PCDPC] - Port size (4) does not match connection size (32) for port 'in'. The port definition is at: D:/CMP2025/First Year/Second Term/Logic Design Advanced/Project/Logic Project New Edition/Logic Project/RotWord.v(13).
#    Time: 0 ps  Iteration: 0  Instance: /Test_bench/test/encrypt/keys/rconFunc File: D:/CMP2025/First Year/Second Term/Logic Design Advanced/Project/Logic Project New Edition/Logic Project/KeyExpansion.v Line: 10
# ** Warning: (vsim-3015) [PCDPC] - Port size (129) does not match connection size (128) for port 'initial_key'. The port definition is at: D:/CMP2025/First Year/Second Term/Logic Design Advanced/Project/Logic Project New Edition/Logic Project/Inv_cipher.v(1).
#    Time: 0 ps  Iteration: 0  Instance: /Test_bench/test/decrypt File: D:/CMP2025/First Year/Second Term/Logic Design Advanced/Project/Logic Project New Edition/Logic Project/Wrapper.v Line: 12
# ** Warning: (vsim-3015) [PCDPC] - Port size (4) does not match connection size (32) for port 'in'. The port definition is at: D:/CMP2025/First Year/Second Term/Logic Design Advanced/Project/Logic Project New Edition/Logic Project/RotWord.v(13).
#    Time: 0 ps  Iteration: 0  Instance: /Test_bench/test/decrypt/keys/rconFunc File: D:/CMP2025/First Year/Second Term/Logic Design Advanced/Project/Logic Project New Edition/Logic Project/KeyExpansion.v Line: 10
# 
# add wave *
# view structure
# .main_pane.structure.interior.cs.body.struct
# view signals
# .main_pane.objects.interior.cs.body.tree
# run -all
# i=          x,rounded=xxxxxxxxxxxxxxxxxxxxxxxxxxxxxxxx,currentKey=xxxxxxxxxxxxxxxxxxxxxxxxxxxxxxxx,shifted=xxxxxxxxxxxxxxxxxxxxxxxxxxxxxxxx,subbed=xxxxxxxxxxxxxxxxxxxxxxxxxxxxxxxx,tempOut=xxxxxxxxxxxxxxxxxxxxxxxxxxxxxxxx,temp=xxxxxxxxxxxxxxxxxxxxxxxxxxxxxxxx,temp_two=xxxxxxxxxxxxxxxxxxxxxxxxxxxxxxxx,j=          x
# i=          0,rounded=xxxxxxxxxxxxxxxxxxxxxxxxxxxxxxxx,currentKey=xxxxxxxxxxxxxxxxxxxxxxxxxxxxxxxx,shifted=00000000000000000000000000000000,subbed=52525252525252525252525252525252,tempOut=xxxxxxxxxxxxxxxxxxxxxxxxxxxxxxxx,temp=00000000000000000000000000000000,temp_two=xxxxxxxxxxxxxxxxxxxxxxxxxxxxxxxx,j=          x
# i=          1,rounded=xxxxxxxxxxxxxxxxxxxxxxxxxxxxxxxx,currentKey=xxxxxxxxxxxxxxxxxxxxxxxxxxxxxxxx,shifted=00000000000000000000000000000000,subbed=52525252525252525252525252525252,tempOut=xxxxxxxxxxxxxxxxxxxxxxxxxxxxxxxx,temp=00000000000000000000000000000000,temp_two=xxxxxxxxxxxxxxxxxxxxxxxxxxxxxxxx,j=        -44
# i=          2,rounded=xxxxxxxxxxxxxxxxxxxxxxxxxxxxxxxx,currentKey=xxxxxxxxxxxxxxxxxxxxxxxxxxxxxxxx,shifted=00000000000000000000000000000000,subbed=52525252525252525252525252525252,tempOut=xxxxxxxxxxxxxxxxxxxxxxxxxxxxxxxx,temp=00000000000000000000000000000000,temp_two=xxxxxxxxxxxxxxxxxxxxxxxxxxxxxxxx,j=        -43
# i=          3,rounded=xxxxxxxxxxxxxxxxxxxxxxxxxxxxxxxx,currentKey=xxxxxxxxxxxxxxxxxxxxxxxxxxxxxxxx,shifted=00000000000000000000000000000000,subbed=52525252525252525252525252525252,tempOut=xxxxxxxxxxxxxxxxxxxxxxxxxxxxxxxx,temp=00000000000000000000000000000000,temp_two=xxxxxxxxxxxxxxxxxxxxxxxxxxxxxxxx,j=        -42
# i=          4,rounded=xxxxxxxxxxxxxxxxxxxxxxxxxxxxxxxx,currentKey=xxxxxxxxxxxxxxxxxxxxxxxxxxxxxxxx,shifted=00000000000000000000000000000000,subbed=52525252525252525252525252525252,tempOut=xxxxxxxxxxxxxxxxxxxxxxxxxxxxxxxx,temp=00000000000000000000000000000000,temp_two=xxxxxxxxxxxxxxxxxxxxxxxxxxxxxxxx,j=        -41
# i=          5,rounded=xxxxxxxxxxxxxxxxxxxxxxxxxxxxxxxx,currentKey=xxxxxxxxxxxxxxxxxxxxxxxxxxxxxxxx,shifted=00000000000000000000000000000000,subbed=52525252525252525252525252525252,tempOut=xxxxxxxxxxxxxxxxxxxxxxxxxxxxxxxx,temp=00000000000000000000000000000000,temp_two=xxxxxxxxxxxxxxxxxxxxxxxxxxxxxxxx,j=        -40
# i=          6,rounded=xxxxxxxxxxxxxxxxxxxxxxxxxxxxxxxx,currentKey=xxxxxxxxxxxxxxxxxxxxxxxxxxxxxxxx,shifted=00000000000000000000000000000000,subbed=52525252525252525252525252525252,tempOut=xxxxxxxxxxxxxxxxxxxxxxxxxxxxxxxx,temp=00000000000000000000000000000000,temp_two=xxxxxxxxxxxxxxxxxxxxxxxxxxxxxxxx,j=        -39
# i=          7,rounded=xxxxxxxxxxxxxxxxxxxxxxxxxxxxxxxx,currentKey=xxxxxxxxxxxxxxxxxxxxxxxxxxxxxxxx,shifted=00000000000000000000000000000000,subbed=52525252525252525252525252525252,tempOut=xxxxxxxxxxxxxxxxxxxxxxxxxxxxxxxx,temp=00000000000000000000000000000000,temp_two=xxxxxxxxxxxxxxxxxxxxxxxxxxxxxxxx,j=        -38
# i=          8,rounded=xxxxxxxxxxxxxxxxxxxxxxxxxxxxxxxx,currentKey=xxxxxxxxxxxxxxxxxxxxxxxxxxxxxxxx,shifted=00000000000000000000000000000000,subbed=52525252525252525252525252525252,tempOut=xxxxxxxxxxxxxxxxxxxxxxxxxxxxxxxx,temp=00000000000000000000000000000000,temp_two=xxxxxxxxxxxxxxxxxxxxxxxxxxxxxxxx,j=        -37
# i=          9,rounded=xxxxxxxxxxxxxxxxxxxxxxxxxxxxxxxx,currentKey=xxxxxxxxxxxxxxxxxxxxxxxxxxxxxxxx,shifted=00000000000000000000000000000000,subbed=52525252525252525252525252525252,tempOut=xxxxxxxxxxxxxxxxxxxxxxxxxxxxxxxx,temp=00000000000000000000000000000000,temp_two=xxxxxxxxxxxxxxxxxxxxxxxxxxxxxxxx,j=        -36
# i=         10,rounded=xxxxxxxxxxxxxxxxxxxxxxxxxxxxxxxx,currentKey=xxxxxxxxxxxxxxxxxxxxxxxxxxxxxxxx,shifted=00000000000000000000000000000000,subbed=52525252525252525252525252525252,tempOut=xxxxxxxxxxxxxxxxxxxxxxxxxxxxxxxx,temp=00000000000000000000000000000000,temp_two=xxxxxxxxxxxxxxxxxxxxxxxxxxxxxxxx,j=        -35
# i=         11,rounded=xxxxxxxxxxxxxxxxxxxxxxxxxxxxxxxx,currentKey=xxxxxxxxxxxxxxxxxxxxxxxxxxxxxxxx,shifted=00000000000000000000000000000000,subbed=52525252525252525252525252525252,tempOut=xxxxxxxxxxxxxxxxxxxxxxxxxxxxxxxx,temp=00000000000000000000000000000000,temp_two=xxxxxxxxxxxxxxxxxxxxxxxxxxxxxxxx,j=        -34
# i=         12,rounded=xxxxxxxxxxxxxxxxxxxxxxxxxxxxxxxx,currentKey=xxxxxxxxxxxxxxxxxxxxxxxxxxxxxxxx,shifted=00000000000000000000000000000000,subbed=52525252525252525252525252525252,tempOut=xxxxxxxxxxxxxxxxxxxxxxxxxxxxxxxx,temp=00000000000000000000000000000000,temp_two=xxxxxxxxxxxxxxxxxxxxxxxxxxxxxxxx,j=        -33
# i=         13,rounded=xxxxxxxxxxxxxxxxxxxxxxxxxxxxxxxx,currentKey=xxxxxxxxxxxxxxxxxxxxxxxxxxxxxxxx,shifted=00000000000000000000000000000000,subbed=52525252525252525252525252525252,tempOut=xxxxxxxxxxxxxxxxxxxxxxxxxxxxxxxx,temp=00000000000000000000000000000000,temp_two=xxxxxxxxxxxxxxxxxxxxxxxxxxxxxxxx,j=        -32
# i=         14,rounded=xxxxxxxxxxxxxxxxxxxxxxxxxxxxxxxx,currentKey=xxxxxxxxxxxxxxxxxxxxxxxxxxxxxxxx,shifted=00000000000000000000000000000000,subbed=52525252525252525252525252525252,tempOut=xxxxxxxxxxxxxxxxxxxxxxxxxxxxxxxx,temp=00000000000000000000000000000000,temp_two=xxxxxxxxxxxxxxxxxxxxxxxxxxxxxxxx,j=        -31
# i=         15,rounded=xxxxxxxxxxxxxxxxxxxxxxxxxxxxxxxx,currentKey=xxxxxxxxxxxxxxxxxxxxxxxxxxxxxxxx,shifted=00000000000000000000000000000000,subbed=52525252525252525252525252525252,tempOut=xxxxxxxxxxxxxxxxxxxxxxxxxxxxxxxx,temp=00000000000000000000000000000000,temp_two=xxxxxxxxxxxxxxxxxxxxxxxxxxxxxxxx,j=        -30
# i=         16,rounded=xxxxxxxxxxxxxxxxxxxxxxxxxxxxxxxx,currentKey=xxxxxxxxxxxxxxxxxxxxxxxxxxxxxxxx,shifted=00000000000000000000000000000000,subbed=52525252525252525252525252525252,tempOut=xxxxxxxxxxxxxxxxxxxxxxxxxxxxxxxx,temp=00000000000000000000000000000000,temp_two=xxxxxxxxxxxxxxxxxxxxxxxxxxxxxxxx,j=        -29
# i=         17,rounded=xxxxxxxxxxxxxxxxxxxxxxxxxxxxxxxx,currentKey=xxxxxxxxxxxxxxxxxxxxxxxxxxxxxxxx,shifted=00000000000000000000000000000000,subbed=52525252525252525252525252525252,tempOut=xxxxxxxxxxxxxxxxxxxxxxxxxxxxxxxx,temp=00000000000000000000000000000000,temp_two=xxxxxxxxxxxxxxxxxxxxxxxxxxxxxxxx,j=        -28
# i=         18,rounded=xxxxxxxxxxxxxxxxxxxxxxxxxxxxxxxx,currentKey=xxxxxxxxxxxxxxxxxxxxxxxxxxxxxxxx,shifted=00000000000000000000000000000000,subbed=52525252525252525252525252525252,tempOut=xxxxxxxxxxxxxxxxxxxxxxxxxxxxxxxx,temp=00000000000000000000000000000000,temp_two=xxxxxxxxxxxxxxxxxxxxxxxxxxxxxxxx,j=        -27
# i=         19,rounded=xxxxxxxxxxxxxxxxxxxxxxxxxxxxxxxx,currentKey=xxxxxxxxxxxxxxxxxxxxxxxxxxxxxxxx,shifted=00000000000000000000000000000000,subbed=52525252525252525252525252525252,tempOut=xxxxxxxxxxxxxxxxxxxxxxxxxxxxxxxx,temp=00000000000000000000000000000000,temp_two=xxxxxxxxxxxxxxxxxxxxxxxxxxxxxxxx,j=        -26
# i=         20,rounded=xxxxxxxxxxxxxxxxxxxxxxxxxxxxxxxx,currentKey=xxxxxxxxxxxxxxxxxxxxxxxxxxxxxxxx,shifted=00000000000000000000000000000000,subbed=52525252525252525252525252525252,tempOut=xxxxxxxxxxxxxxxxxxxxxxxxxxxxxxxx,temp=00000000000000000000000000000000,temp_two=xxxxxxxxxxxxxxxxxxxxxxxxxxxxxxxx,j=        -25
# i=         21,rounded=xxxxxxxxxxxxxxxxxxxxxxxxxxxxxxxx,currentKey=xxxxxxxxxxxxxxxxxxxxxxxxxxxxxxxx,shifted=00000000000000000000000000000000,subbed=52525252525252525252525252525252,tempOut=xxxxxxxxxxxxxxxxxxxxxxxxxxxxxxxx,temp=00000000000000000000000000000000,temp_two=xxxxxxxxxxxxxxxxxxxxxxxxxxxxxxxx,j=        -24
# i=         22,rounded=xxxxxxxxxxxxxxxxxxxxxxxxxxxxxxxx,currentKey=xxxxxxxxxxxxxxxxxxxxxxxxxxxxxxxx,shifted=00000000000000000000000000000000,subbed=52525252525252525252525252525252,tempOut=xxxxxxxxxxxxxxxxxxxxxxxxxxxxxxxx,temp=00000000000000000000000000000000,temp_two=xxxxxxxxxxxxxxxxxxxxxxxxxxxxxxxx,j=        -23
# i=         23,rounded=xxxxxxxxxxxxxxxxxxxxxxxxxxxxxxxx,currentKey=xxxxxxxxxxxxxxxxxxxxxxxxxxxxxxxx,shifted=00000000000000000000000000000000,subbed=52525252525252525252525252525252,tempOut=xxxxxxxxxxxxxxxxxxxxxxxxxxxxxxxx,temp=00000000000000000000000000000000,temp_two=xxxxxxxxxxxxxxxxxxxxxxxxxxxxxxxx,j=        -22
# i=         24,rounded=xxxxxxxxxxxxxxxxxxxxxxxxxxxxxxxx,currentKey=xxxxxxxxxxxxxxxxxxxxxxxxxxxxxxxx,shifted=00000000000000000000000000000000,subbed=52525252525252525252525252525252,tempOut=xxxxxxxxxxxxxxxxxxxxxxxxxxxxxxxx,temp=00000000000000000000000000000000,temp_two=xxxxxxxxxxxxxxxxxxxxxxxxxxxxxxxx,j=        -21
# i=         25,rounded=xxxxxxxxxxxxxxxxxxxxxxxxxxxxxxxx,currentKey=xxxxxxxxxxxxxxxxxxxxxxxxxxxxxxxx,shifted=00000000000000000000000000000000,subbed=52525252525252525252525252525252,tempOut=xxxxxxxxxxxxxxxxxxxxxxxxxxxxxxxx,temp=00000000000000000000000000000000,temp_two=xxxxxxxxxxxxxxxxxxxxxxxxxxxxxxxx,j=        -20
# i=         26,rounded=xxxxxxxxxxxxxxxxxxxxxxxxxxxxxxxx,currentKey=xxxxxxxxxxxxxxxxxxxxxxxxxxxxxxxx,shifted=00000000000000000000000000000000,subbed=52525252525252525252525252525252,tempOut=xxxxxxxxxxxxxxxxxxxxxxxxxxxxxxxx,temp=00000000000000000000000000000000,temp_two=xxxxxxxxxxxxxxxxxxxxxxxxxxxxxxxx,j=        -19
# i=         27,rounded=xxxxxxxxxxxxxxxxxxxxxxxxxxxxxxxx,currentKey=xxxxxxxxxxxxxxxxxxxxxxxxxxxxxxxx,shifted=00000000000000000000000000000000,subbed=52525252525252525252525252525252,tempOut=xxxxxxxxxxxxxxxxxxxxxxxxxxxxxxxx,temp=00000000000000000000000000000000,temp_two=xxxxxxxxxxxxxxxxxxxxxxxxxxxxxxxx,j=        -18
# i=         28,rounded=xxxxxxxxxxxxxxxxxxxxxxxxxxxxxxxx,currentKey=xxxxxxxxxxxxxxxxxxxxxxxxxxxxxxxx,shifted=00000000000000000000000000000000,subbed=52525252525252525252525252525252,tempOut=xxxxxxxxxxxxxxxxxxxxxxxxxxxxxxxx,temp=00000000000000000000000000000000,temp_two=xxxxxxxxxxxxxxxxxxxxxxxxxxxxxxxx,j=        -17
# i=         29,rounded=xxxxxxxxxxxxxxxxxxxxxxxxxxxxxxxx,currentKey=xxxxxxxxxxxxxxxxxxxxxxxxxxxxxxxx,shifted=00000000000000000000000000000000,subbed=52525252525252525252525252525252,tempOut=xxxxxxxxxxxxxxxxxxxxxxxxxxxxxxxx,temp=00000000000000000000000000000000,temp_two=xxxxxxxxxxxxxxxxxxxxxxxxxxxxxxxx,j=        -16
# i=         30,rounded=xxxxxxxxxxxxxxxxxxxxxxxxxxxxxxxx,currentKey=xxxxxxxxxxxxxxxxxxxxxxxxxxxxxxxx,shifted=00000000000000000000000000000000,subbed=52525252525252525252525252525252,tempOut=xxxxxxxxxxxxxxxxxxxxxxxxxxxxxxxx,temp=00000000000000000000000000000000,temp_two=xxxxxxxxxxxxxxxxxxxxxxxxxxxxxxxx,j=        -15
# i=         31,rounded=xxxxxxxxxxxxxxxxxxxxxxxxxxxxxxxx,currentKey=xxxxxxxxxxxxxxxxxxxxxxxxxxxxxxxx,shifted=00000000000000000000000000000000,subbed=52525252525252525252525252525252,tempOut=xxxxxxxxxxxxxxxxxxxxxxxxxxxxxxxx,temp=00000000000000000000000000000000,temp_two=xxxxxxxxxxxxxxxxxxxxxxxxxxxxxxxx,j=        -14
